Suite/Test/Step Name,Browser,Description,Start time,End time,Duration,Status
TS_Phase1,Chrome 67.0.3396.99,,2018-06-26 18:42:16,2018-06-26 18:43:10,53.940s,FAILED
,,,,,,
Test Cases/Login/SDS_Open_Website,Chrome 67.0.3396.99,,2018-06-26 18:42:16,2018-06-26 18:42:21,4.362s,PASSED
openBrowser,Chrome 67.0.3396.99,,2018-06-26 18:42:17,2018-06-26 18:42:20,2.696s,PASSED
navigateToUrl,Chrome 67.0.3396.99,,2018-06-26 18:42:20,2018-06-26 18:42:21,0.878s,PASSED
"Statement - assert com.kms.katalon.core.webui.keyword.WebUiBuiltInKeywords.getWindowTitle() == ""Login"" : ""Fail to reach SDS website""",Chrome 67.0.3396.99,,2018-06-26 18:42:21,2018-06-26 18:42:21,0.046s,PASSED
"Statement - assert com.kms.katalon.core.webui.keyword.WebUiBuiltInKeywords.verifyElementPresent(com.kms.katalon.core.testobject.ObjectRepository.findTestObject(SDS_Login/SDS_Login_Page/img_loginPage-logo), 3) && com.kms.katalon.core.webui.keyword.WebUiBuiltInKeywords.verifyElementPresent(com.kms.katalon.core.testobject.ObjectRepository.findTestObject(SDS_Login/SDS_Login_Page/input_Email), 3) && com.kms.katalon.core.webui.keyword.WebUiBuiltInKeywords.verifyElementPresent(com.kms.katalon.core.testobject.ObjectRepository.findTestObject(SDS_Login/SDS_Login_Page/input_Password), 3) && com.kms.katalon.core.webui.keyword.WebUiBuiltInKeywords.verifyElementPresent(com.kms.katalon.core.testobject.ObjectRepository.findTestObject(SDS_Login/SDS_Login_Page/input_loginPage-button), 3) : ""SDS login page missing login elements""",Chrome 67.0.3396.99,,2018-06-26 18:42:21,2018-06-26 18:42:21,0.219s,PASSED
,,,,,,
Test Cases/Login/SDS_Login_Invalid,Chrome 67.0.3396.99,,2018-06-26 18:42:21,2018-06-26 18:42:27,5.713s,FAILED
"Statement - Username = ""Admin@synectmedia.com""",Chrome 67.0.3396.99,,2018-06-26 18:42:21,2018-06-26 18:42:21,0.003s,PASSED
"Statement - Password = ""Admin@""",Chrome 67.0.3396.99,,2018-06-26 18:42:21,2018-06-26 18:42:21,0.002s,PASSED
"Statement - Invalid_Login(Username, Password)",Chrome 67.0.3396.99,,2018-06-26 18:42:21,2018-06-26 18:42:21,0.002s,PASSED
setText,Chrome 67.0.3396.99,,2018-06-26 18:42:21,2018-06-26 18:42:21,0.353s,PASSED
setText,Chrome 67.0.3396.99,,2018-06-26 18:42:21,2018-06-26 18:42:22,0.177s,PASSED
click,Chrome 67.0.3396.99,,2018-06-26 18:42:22,2018-06-26 18:42:22,0.241s,PASSED
"Statement - assert com.kms.katalon.core.webui.keyword.WebUiBuiltInKeywords.verifyElementPresent(com.kms.katalon.core.testobject.ObjectRepository.findTestObject(SDS_Login/SDS_Login_Page/invalid_login_attempt), 3) : ""Error message not displayed""",Chrome 67.0.3396.99,,2018-06-26 18:42:22,2018-06-26 18:42:22,0.035s,PASSED
"Statement - assert com.kms.katalon.core.webui.keyword.WebUiBuiltInKeywords.verifyElementNotPresent(com.kms.katalon.core.testobject.ObjectRepository.findTestObject(SDS_Login/SDS_Logged_In/loggout_form), 3) : ""User successfully logged in with invalid password""",Chrome 67.0.3396.99,,2018-06-26 18:42:22,2018-06-26 18:42:22,0.137s,PASSED
"Statement - Username = ""Admin@synect""",Chrome 67.0.3396.99,,2018-06-26 18:42:22,2018-06-26 18:42:22,0.001s,PASSED
"Statement - Password = ""Admin@1234""",Chrome 67.0.3396.99,,2018-06-26 18:42:22,2018-06-26 18:42:22,0.002s,PASSED
"Statement - Invalid_Login(Username, Password)",Chrome 67.0.3396.99,,2018-06-26 18:42:22,2018-06-26 18:42:22,0.001s,PASSED
setText,Chrome 67.0.3396.99,,2018-06-26 18:42:22,2018-06-26 18:42:22,0.218s,PASSED
setText,Chrome 67.0.3396.99,,2018-06-26 18:42:22,2018-06-26 18:42:22,0.172s,PASSED
click,Chrome 67.0.3396.99,,2018-06-26 18:42:22,2018-06-26 18:42:23,0.189s,PASSED
"Statement - assert com.kms.katalon.core.webui.keyword.WebUiBuiltInKeywords.verifyElementPresent(com.kms.katalon.core.testobject.ObjectRepository.findTestObject(SDS_Login/SDS_Login_Page/invalid_login_attempt), 3) : ""Error message not displayed""",Chrome 67.0.3396.99,,2018-06-26 18:42:23,2018-06-26 18:42:27,3.932s,FAILED
,,,,,,
Test Cases/Login/SDS_Login_Valid,Chrome 67.0.3396.99,,2018-06-26 18:42:27,2018-06-26 18:42:28,1.530s,PASSED
"Statement - Username = ""Admin@synectmedia.com""",Chrome 67.0.3396.99,,2018-06-26 18:42:27,2018-06-26 18:42:27,0.001s,PASSED
"Statement - Password = ""Admin@1234""",Chrome 67.0.3396.99,,2018-06-26 18:42:27,2018-06-26 18:42:27,0.001s,PASSED
setText,Chrome 67.0.3396.99,,2018-06-26 18:42:27,2018-06-26 18:42:27,0.262s,PASSED
setText,Chrome 67.0.3396.99,,2018-06-26 18:42:27,2018-06-26 18:42:27,0.163s,PASSED
click,Chrome 67.0.3396.99,,2018-06-26 18:42:27,2018-06-26 18:42:28,0.902s,PASSED
"Statement - assert com.kms.katalon.core.webui.keyword.WebUiBuiltInKeywords.verifyElementPresent(com.kms.katalon.core.testobject.ObjectRepository.findTestObject(SDS_Login/SDS_Logged_In/loggout_form), 3) : ""Fail to login with valid credentials""",Chrome 67.0.3396.99,,2018-06-26 18:42:28,2018-06-26 18:42:28,0.058s,PASSED
,,,,,,
Test Cases/Register_User/Swagger_Open_Webpage,Chrome 67.0.3396.99,Testing if user can be redirected to Swagger UI webpage via SDS website.\n\nAssumption: User is logged in to the SDS website as admin.,2018-06-26 18:42:28,2018-06-26 18:42:29,1.310s,PASSED
click,Chrome 67.0.3396.99,,2018-06-26 18:42:28,2018-06-26 18:42:28,0.131s,PASSED
click,Chrome 67.0.3396.99,,2018-06-26 18:42:28,2018-06-26 18:42:29,0.534s,PASSED
"Statement - assert com.kms.katalon.core.webui.keyword.WebUiBuiltInKeywords.verifyElementPresent(com.kms.katalon.core.testobject.ObjectRepository.findTestObject(SDS_Login/SDS_Create_User/Page_Swagger UI/Security_Module/a_swagger), 3) : ""Admin is not redirected to Swagger UI""",Chrome 67.0.3396.99,,2018-06-26 18:42:29,2018-06-26 18:42:29,0.462s,PASSED
,,,,,,
Test Cases/Register_User/Swagger_Register_User,Chrome 67.0.3396.99,,2018-06-26 18:42:29,2018-06-26 18:42:38,8.099s,PASSED
"Statement - Username = ""KATALON""",Chrome 67.0.3396.99,,2018-06-26 18:42:30,2018-06-26 18:42:30,0.001s,PASSED
"Statement - Password = ""KATALON""",Chrome 67.0.3396.99,,2018-06-26 18:42:30,2018-06-26 18:42:30,0.001s,PASSED
waitForElementVisible,Chrome 67.0.3396.99,,2018-06-26 18:42:30,2018-06-26 18:42:30,0.111s,PASSED
click,Chrome 67.0.3396.99,,2018-06-26 18:42:30,2018-06-26 18:42:30,0.144s,PASSED
waitForElementVisible,Chrome 67.0.3396.99,,2018-06-26 18:42:30,2018-06-26 18:42:30,0.091s,PASSED
click,Chrome 67.0.3396.99,,2018-06-26 18:42:30,2018-06-26 18:42:30,0.265s,PASSED
"Statement - register_user(Username, Password)",Chrome 67.0.3396.99,,2018-06-26 18:42:30,2018-06-26 18:42:30,0.002s,PASSED
waitForElementVisible,Chrome 67.0.3396.99,,2018-06-26 18:42:30,2018-06-26 18:42:30,0.139s,PASSED
"Statement - input = ""{""Username"": """" + username + """", ""Password"": """" + password + """", ""Token"": ""string""}""",Chrome 67.0.3396.99,,2018-06-26 18:42:30,2018-06-26 18:42:30,0.001s,PASSED
setText,Chrome 67.0.3396.99,,2018-06-26 18:42:30,2018-06-26 18:42:31,0.752s,PASSED
waitForElementVisible,Chrome 67.0.3396.99,,2018-06-26 18:42:31,2018-06-26 18:42:31,0.056s,PASSED
click,Chrome 67.0.3396.99,,2018-06-26 18:42:31,2018-06-26 18:42:31,0.087s,PASSED
delay,Chrome 67.0.3396.99,,2018-06-26 18:42:31,2018-06-26 18:42:34,3.019s,PASSED
"Statement - If (com.kms.katalon.core.webui.keyword.WebUiBuiltInKeywords.getText(com.kms.katalon.core.testobject.ObjectRepository.findTestObject(SDS_Login/SDS_Create_User/Page_Swagger UI/Security_Module/Register/register_code_true)) == ""false"")",Chrome 67.0.3396.99,,2018-06-26 18:42:34,2018-06-26 18:42:34,0.087s,PASSED
delay,Chrome 67.0.3396.99,,2018-06-26 18:42:34,2018-06-26 18:42:37,3.004s,PASSED
"Statement - assert com.kms.katalon.core.webui.keyword.WebUiBuiltInKeywords.verifyElementText(com.kms.katalon.core.testobject.ObjectRepository.findTestObject(SDS_Login/SDS_Create_User/Page_Swagger UI/Security_Module/Register/register_code_200), ""200"") : ""Server is unavailable""",Chrome 67.0.3396.99,,2018-06-26 18:42:37,2018-06-26 18:42:37,0.072s,PASSED
"Statement - assert com.kms.katalon.core.webui.keyword.WebUiBuiltInKeywords.verifyElementText(com.kms.katalon.core.testobject.ObjectRepository.findTestObject(SDS_Login/SDS_Create_User/Page_Swagger UI/Security_Module/Register/register_code_true), ""true"") : ""Fail to register user""",Chrome 67.0.3396.99,,2018-06-26 18:42:37,2018-06-26 18:42:38,0.054s,PASSED
,,,,,,
Test Cases/Register_User/Swagger_Register_Duplicate_User,Chrome 67.0.3396.99,,2018-06-26 18:42:38,2018-06-26 18:42:41,3.363s,PASSED
waitForElementVisible,Chrome 67.0.3396.99,,2018-06-26 18:42:38,2018-06-26 18:42:38,0.055s,PASSED
click,Chrome 67.0.3396.99,,2018-06-26 18:42:38,2018-06-26 18:42:38,0.073s,PASSED
delay,Chrome 67.0.3396.99,,2018-06-26 18:42:38,2018-06-26 18:42:41,3.006s,PASSED
"Statement - assert com.kms.katalon.core.webui.keyword.WebUiBuiltInKeywords.verifyElementText(com.kms.katalon.core.testobject.ObjectRepository.findTestObject(SDS_Login/SDS_Create_User/Page_Swagger UI/Security_Module/Register/register_code_200), ""200"") : ""Server is unavailable""",Chrome 67.0.3396.99,,2018-06-26 18:42:41,2018-06-26 18:42:41,0.049s,PASSED
"Statement - assert com.kms.katalon.core.webui.keyword.WebUiBuiltInKeywords.verifyElementText(com.kms.katalon.core.testobject.ObjectRepository.findTestObject(SDS_Login/SDS_Create_User/Page_Swagger UI/Security_Module/Register/register_code_true), ""false"") : ""System allows duplicate user to be created.""",Chrome 67.0.3396.99,,2018-06-26 18:42:41,2018-06-26 18:42:41,0.048s,PASSED
,,,,,,
Test Cases/Change_Password/SDMC_Open_Website,Chrome 67.0.3396.99,,2018-06-26 18:42:41,2018-06-26 18:42:44,3.372s,PASSED
"Statement - url = ""https://sdmc-qa-cloud.azurewebsites.net/""",Chrome 67.0.3396.99,,2018-06-26 18:42:41,2018-06-26 18:42:41,0.009s,PASSED
openBrowser,Chrome 67.0.3396.99,,2018-06-26 18:42:41,2018-06-26 18:42:42,1.135s,PASSED
"Statement - println(""PRINTING"")",Chrome 67.0.3396.99,,2018-06-26 18:42:42,2018-06-26 18:42:42,0.005s,PASSED
navigateToUrl,Chrome 67.0.3396.99,,2018-06-26 18:42:42,2018-06-26 18:42:43,0.798s,PASSED
"Statement - assert com.kms.katalon.core.webui.keyword.WebUiBuiltInKeywords.getWindowTitle() == ""SDMC"" : ""Failed to open SDMC login webpage.""",Chrome 67.0.3396.99,,2018-06-26 18:42:43,2018-06-26 18:42:43,0.012s,PASSED
"Statement - assert com.kms.katalon.core.webui.keyword.WebUiBuiltInKeywords.verifyElementPresent(com.kms.katalon.core.testobject.ObjectRepository.findTestObject(SDMC_Change_Password/SDMC_Login_Page/Elements/SDMC_input_username), 3) && com.kms.katalon.core.webui.keyword.WebUiBuiltInKeywords.verifyElementPresent(com.kms.katalon.core.testobject.ObjectRepository.findTestObject(SDMC_Change_Password/SDMC_Login_Page/Elements/SDMC_input-password), 3) && com.kms.katalon.core.webui.keyword.WebUiBuiltInKeywords.verifyElementPresent(com.kms.katalon.core.testobject.ObjectRepository.findTestObject(SDMC_Change_Password/SDMC_Login_Page/Elements/SDMC_sign_in_button), 3) : ""SDMC login page missing elements""",Chrome 67.0.3396.99,,2018-06-26 18:42:43,2018-06-26 18:42:44,1.202s,PASSED
,,,,,,
Test Cases/Change_Password/SDMC_Login,Chrome 67.0.3396.99,,2018-06-26 18:42:44,2018-06-26 18:42:47,2.502s,PASSED
"Statement - Username = ""KATALON""",Chrome 67.0.3396.99,,2018-06-26 18:42:45,2018-06-26 18:42:45,0.001s,PASSED
"Statement - Current_Password = ""KATALON""",Chrome 67.0.3396.99,,2018-06-26 18:42:45,2018-06-26 18:42:45,0.001s,PASSED
"Statement - User_Login(Username, Current_Password)",Chrome 67.0.3396.99,,2018-06-26 18:42:45,2018-06-26 18:42:45,0.003s,PASSED
setText,Chrome 67.0.3396.99,,2018-06-26 18:42:45,2018-06-26 18:42:45,0.238s,PASSED
setText,Chrome 67.0.3396.99,,2018-06-26 18:42:45,2018-06-26 18:42:45,0.192s,PASSED
click,Chrome 67.0.3396.99,,2018-06-26 18:42:45,2018-06-26 18:42:45,0.108s,PASSED
"Statement - If (com.kms.katalon.core.webui.keyword.WebUiBuiltInKeywords.verifyElementPresent(com.kms.katalon.core.testobject.ObjectRepository.findTestObject(SDMC_Change_Password/SDMC_Login_Page/Errors/SDMC_invalid_login), 1, OPTIONAL))",Chrome 67.0.3396.99,,2018-06-26 18:42:45,2018-06-26 18:42:47,1.616s,PASSED
"Statement - assert com.kms.katalon.core.webui.keyword.WebUiBuiltInKeywords.verifyElementPresent(com.kms.katalon.core.testobject.ObjectRepository.findTestObject(SDMC_Change_Password/SDMC_Change_Password_Webpage/Elements/SDMC_change_password_message), 1) : ""User not redirected to SDMC change password webpage""",Chrome 67.0.3396.99,,2018-06-26 18:42:47,2018-06-26 18:42:47,0.029s,PASSED
"Statement - assert com.kms.katalon.core.webui.keyword.WebUiBuiltInKeywords.verifyElementPresent(com.kms.katalon.core.testobject.ObjectRepository.findTestObject(SDMC_Change_Password/SDMC_Change_Password_Webpage/Elements/SDMC_input_current_password), 1) && com.kms.katalon.core.webui.keyword.WebUiBuiltInKeywords.verifyElementPresent(com.kms.katalon.core.testobject.ObjectRepository.findTestObject(SDMC_Change_Password/SDMC_Change_Password_Webpage/Elements/SDMC_input_new_password), 1) && com.kms.katalon.core.webui.keyword.WebUiBuiltInKeywords.verifyElementPresent(com.kms.katalon.core.testobject.ObjectRepository.findTestObject(SDMC_Change_Password/SDMC_Change_Password_Webpage/Elements/SDMC_input_confirm_password), 1) : ""Change password webpage missing text fields""",Chrome 67.0.3396.99,,2018-06-26 18:42:47,2018-06-26 18:42:47,0.102s,PASSED
,,,,,,
Test Cases/Change_Password/SDMC_Reset_Password_Invalid_1,Chrome 67.0.3396.99,,2018-06-26 18:42:47,2018-06-26 18:42:51,4.279s,FAILED
"Statement - Current_Password = ""ABC123""",Chrome 67.0.3396.99,,2018-06-26 18:42:47,2018-06-26 18:42:47,0.001s,PASSED
"Statement - New_Password = ""KATALON1""",Chrome 67.0.3396.99,,2018-06-26 18:42:47,2018-06-26 18:42:47,0.001s,PASSED
"Statement - Confirm_Password = ""KATALON1""",Chrome 67.0.3396.99,,2018-06-26 18:42:47,2018-06-26 18:42:47,0.001s,PASSED
setText,Chrome 67.0.3396.99,,2018-06-26 18:42:47,2018-06-26 18:42:47,0.162s,PASSED
setText,Chrome 67.0.3396.99,,2018-06-26 18:42:47,2018-06-26 18:42:47,0.205s,PASSED
setText,Chrome 67.0.3396.99,,2018-06-26 18:42:47,2018-06-26 18:42:47,0.194s,PASSED
focus,Chrome 67.0.3396.99,,2018-06-26 18:42:47,2018-06-26 18:42:48,0.066s,PASSED
"Statement - assert com.kms.katalon.core.webui.keyword.WebUiBuiltInKeywords.verifyElementNotPresent(com.kms.katalon.core.testobject.ObjectRepository.findTestObject(SDMC_Change_Password/SDMC_Change_Password_Webpage/Elements/button_Submit), 3, CONTINUE_ON_FAILURE) : ""Submit button is not disabled""",Chrome 67.0.3396.99,,2018-06-26 18:42:48,2018-06-26 18:42:51,3.521s,FAILED
,,,,,,
Test Cases/Change_Password/SDMC_Reset_Password_Invalid_2,Chrome 67.0.3396.99,,2018-06-26 18:42:51,2018-06-26 18:42:55,3.750s,PASSED
"Statement - Current_Password = ""KATALON""",Chrome 67.0.3396.99,,2018-06-26 18:42:51,2018-06-26 18:42:51,0.004s,PASSED
"Statement - New_Password = ""KATAL""",Chrome 67.0.3396.99,,2018-06-26 18:42:51,2018-06-26 18:42:51,0.001s,PASSED
"Statement - Confirm_Password = ""KATAL""",Chrome 67.0.3396.99,,2018-06-26 18:42:51,2018-06-26 18:42:51,0.001s,PASSED
setText,Chrome 67.0.3396.99,,2018-06-26 18:42:51,2018-06-26 18:42:51,0.205s,PASSED
setText,Chrome 67.0.3396.99,,2018-06-26 18:42:51,2018-06-26 18:42:52,0.159s,PASSED
setText,Chrome 67.0.3396.99,,2018-06-26 18:42:52,2018-06-26 18:42:52,0.118s,PASSED
focus,Chrome 67.0.3396.99,,2018-06-26 18:42:52,2018-06-26 18:42:52,0.046s,PASSED
"Statement - assert com.kms.katalon.core.webui.keyword.WebUiBuiltInKeywords.verifyElementPresent(com.kms.katalon.core.testobject.ObjectRepository.findTestObject(SDMC_Change_Password/SDMC_Change_Password_Webpage/Errors/SDMC_error_password_six), 3, CONTINUE_ON_FAILURE) : ""Error message not displayed""",Chrome 67.0.3396.99,,2018-06-26 18:42:52,2018-06-26 18:42:52,0.033s,PASSED
"Statement - assert com.kms.katalon.core.webui.keyword.WebUiBuiltInKeywords.verifyElementNotPresent(com.kms.katalon.core.testobject.ObjectRepository.findTestObject(SDMC_Change_Password/SDMC_Change_Password_Webpage/Elements/button_Submit), 3, CONTINUE_ON_FAILURE) : ""Submit button not disabled""",Chrome 67.0.3396.99,,2018-06-26 18:42:52,2018-06-26 18:42:52,0.017s,PASSED
delay,Chrome 67.0.3396.99,,2018-06-26 18:42:52,2018-06-26 18:42:55,3.002s,PASSED
,,,,,,
Test Cases/Change_Password/SDMC_Reset_Password_Invalid_3,Chrome 67.0.3396.99,,2018-06-26 18:42:55,2018-06-26 18:42:58,3.607s,PASSED
"Statement - Current_Password = ""KATALON""",Chrome 67.0.3396.99,,2018-06-26 18:42:55,2018-06-26 18:42:55,0.000s,PASSED
"Statement - New_Password = ""KATALON1""",Chrome 67.0.3396.99,,2018-06-26 18:42:55,2018-06-26 18:42:55,0.000s,PASSED
"Statement - Confirm_Password = ""KATALON2""",Chrome 67.0.3396.99,,2018-06-26 18:42:55,2018-06-26 18:42:55,0.000s,PASSED
setText,Chrome 67.0.3396.99,,2018-06-26 18:42:55,2018-06-26 18:42:55,0.135s,PASSED
setText,Chrome 67.0.3396.99,,2018-06-26 18:42:55,2018-06-26 18:42:55,0.137s,PASSED
setText,Chrome 67.0.3396.99,,2018-06-26 18:42:55,2018-06-26 18:42:55,0.134s,PASSED
focus,Chrome 67.0.3396.99,,2018-06-26 18:42:55,2018-06-26 18:42:55,0.044s,PASSED
"Statement - assert com.kms.katalon.core.webui.keyword.WebUiBuiltInKeywords.verifyElementPresent(com.kms.katalon.core.testobject.ObjectRepository.findTestObject(SDMC_Change_Password/SDMC_Change_Password_Webpage/Errors/p_Passwords must match), 3, CONTINUE_ON_FAILURE) : ""Error message not displayed""",Chrome 67.0.3396.99,,2018-06-26 18:42:55,2018-06-26 18:42:55,0.031s,PASSED
"Statement - assert com.kms.katalon.core.webui.keyword.WebUiBuiltInKeywords.verifyElementNotPresent(com.kms.katalon.core.testobject.ObjectRepository.findTestObject(SDMC_Change_Password/SDMC_Change_Password_Webpage/Elements/button_Submit), 3, CONTINUE_ON_FAILURE) : ""Submit button is not disabled""",Chrome 67.0.3396.99,,2018-06-26 18:42:55,2018-06-26 18:42:55,0.021s,PASSED
delay,Chrome 67.0.3396.99,,2018-06-26 18:42:55,2018-06-26 18:42:58,3.006s,PASSED
,,,,,,
Test Cases/Change_Password/SDMC_Reset_Password_Valid,Chrome 67.0.3396.99,,2018-06-26 18:42:58,2018-06-26 18:43:02,3.941s,PASSED
"Statement - Current_Password = ""KATALON""",Chrome 67.0.3396.99,,2018-06-26 18:42:59,2018-06-26 18:42:59,0.001s,PASSED
"Statement - New_Password = ""KATALON123""",Chrome 67.0.3396.99,,2018-06-26 18:42:59,2018-06-26 18:42:59,0.001s,PASSED
"Statement - Confirm_Password = ""KATALON123""",Chrome 67.0.3396.99,,2018-06-26 18:42:59,2018-06-26 18:42:59,0.001s,PASSED
setText,Chrome 67.0.3396.99,,2018-06-26 18:42:59,2018-06-26 18:42:59,0.159s,PASSED
setText,Chrome 67.0.3396.99,,2018-06-26 18:42:59,2018-06-26 18:42:59,0.202s,PASSED
setText,Chrome 67.0.3396.99,,2018-06-26 18:42:59,2018-06-26 18:42:59,0.165s,PASSED
focus,Chrome 67.0.3396.99,,2018-06-26 18:42:59,2018-06-26 18:42:59,0.070s,PASSED
"Statement - assert com.kms.katalon.core.webui.keyword.WebUiBuiltInKeywords.verifyElementClickable(com.kms.katalon.core.testobject.ObjectRepository.findTestObject(SDMC_Change_Password/SDMC_Change_Password_Webpage/Elements/button_Submit), STOP_ON_FAILURE) : ""User unable to click Submit button""",Chrome 67.0.3396.99,,2018-06-26 18:42:59,2018-06-26 18:42:59,0.063s,PASSED
click,Chrome 67.0.3396.99,,2018-06-26 18:42:59,2018-06-26 18:42:59,0.094s,PASSED
delay,Chrome 67.0.3396.99,,2018-06-26 18:42:59,2018-06-26 18:43:02,3.011s,PASSED
"Statement - assert com.kms.katalon.core.webui.keyword.WebUiBuiltInKeywords.verifyElementClickable(com.kms.katalon.core.testobject.ObjectRepository.findTestObject(SDMC_Change_Password/SDMC_Logged_In/div_KATALONLog out)) && com.kms.katalon.core.webui.keyword.WebUiBuiltInKeywords.verifyElementPresent(com.kms.katalon.core.testobject.ObjectRepository.findTestObject(SDMC_Change_Password/SDMC_Logged_In/div_logo), 3, STOP_ON_FAILURE) : ""User is not redirected to SDMC homepage""",Chrome 67.0.3396.99,,2018-06-26 18:43:02,2018-06-26 18:43:02,0.071s,PASSED
,,,,,,
Test Cases/Register_User/Swagger_Remove_User,Chrome 67.0.3396.99,,2018-06-26 18:43:02,2018-06-26 18:43:10,7.510s,PASSED
callTestCase,Chrome 67.0.3396.99,,2018-06-26 18:43:03,2018-06-26 18:43:05,2.319s,PASSED
callTestCase,Chrome 67.0.3396.99,,2018-06-26 18:43:05,2018-06-26 18:43:06,1.438s,PASSED
callTestCase,Chrome 67.0.3396.99,,2018-06-26 18:43:06,2018-06-26 18:43:08,1.269s,PASSED
waitForElementVisible,Chrome 67.0.3396.99,,2018-06-26 18:43:08,2018-06-26 18:43:08,0.073s,PASSED
click,Chrome 67.0.3396.99,,2018-06-26 18:43:08,2018-06-26 18:43:08,0.109s,PASSED
waitForElementVisible,Chrome 67.0.3396.99,,2018-06-26 18:43:08,2018-06-26 18:43:08,0.579s,PASSED
click,Chrome 67.0.3396.99,,2018-06-26 18:43:08,2018-06-26 18:43:08,0.152s,PASSED
waitForElementVisible,Chrome 67.0.3396.99,,2018-06-26 18:43:08,2018-06-26 18:43:09,0.589s,PASSED
setText,Chrome 67.0.3396.99,,2018-06-26 18:43:09,2018-06-26 18:43:10,0.559s,PASSED
waitForElementVisible,Chrome 67.0.3396.99,,2018-06-26 18:43:10,2018-06-26 18:43:10,0.053s,PASSED
click,Chrome 67.0.3396.99,,2018-06-26 18:43:10,2018-06-26 18:43:10,0.086s,PASSED
closeBrowser,Chrome 67.0.3396.99,,2018-06-26 18:43:10,2018-06-26 18:43:10,0.164s,PASSED
