<?xml version="1.0" encoding="UTF-8"?>
<Project>
   <description></description>
   <name>Phase1_CreateUser</name>
   <tag></tag>
   <UUID>3b41e7bf-861b-4201-935d-b1d90b8c90d5</UUID>
   <migratedVersion>5.4.0</migratedVersion>
   <pageLoadTimeout>0</pageLoadTimeout>
</Project>
