Suite/Test/Step Name,Browser,Description,Start time,End time,Duration,Status
TS1_SDS_Login,Chrome 67.0.3396.99,,2018-06-26 12:55:26,2018-06-26 12:55:42,15.630s,FAILED
,,,,,,
Test Cases/Login/SDS_Open_Website,Chrome 67.0.3396.99,,2018-06-26 12:55:27,2018-06-26 12:55:33,6.615s,PASSED
openBrowser,Chrome 67.0.3396.99,,2018-06-26 12:55:27,2018-06-26 12:55:32,4.429s,PASSED
navigateToUrl,Chrome 67.0.3396.99,,2018-06-26 12:55:32,2018-06-26 12:55:33,1.257s,PASSED
"Statement - assert com.kms.katalon.core.webui.keyword.WebUiBuiltInKeywords.getWindowTitle() == ""Login"" : ""Fail to reach SDS website""",Chrome 67.0.3396.99,,2018-06-26 12:55:33,2018-06-26 12:55:33,0.043s,PASSED
"Statement - assert com.kms.katalon.core.webui.keyword.WebUiBuiltInKeywords.verifyElementPresent(com.kms.katalon.core.testobject.ObjectRepository.findTestObject(SDS_Login/SDS_Login_Page/img_loginPage-logo), 3) && com.kms.katalon.core.webui.keyword.WebUiBuiltInKeywords.verifyElementPresent(com.kms.katalon.core.testobject.ObjectRepository.findTestObject(SDS_Login/SDS_Login_Page/input_Email), 3) && com.kms.katalon.core.webui.keyword.WebUiBuiltInKeywords.verifyElementPresent(com.kms.katalon.core.testobject.ObjectRepository.findTestObject(SDS_Login/SDS_Login_Page/input_Password), 3) && com.kms.katalon.core.webui.keyword.WebUiBuiltInKeywords.verifyElementPresent(com.kms.katalon.core.testobject.ObjectRepository.findTestObject(SDS_Login/SDS_Login_Page/input_loginPage-button), 3) : ""SDS login page missing login elements""",Chrome 67.0.3396.99,,2018-06-26 12:55:33,2018-06-26 12:55:33,0.244s,PASSED
,,,,,,
Test Cases/Login/SDS_Login_Invalid,Chrome 67.0.3396.99,,2018-06-26 12:55:33,2018-06-26 12:55:39,6.168s,FAILED
"Statement - Username = ""Admin@synectmedia.com""",Chrome 67.0.3396.99,,2018-06-26 12:55:34,2018-06-26 12:55:34,0.001s,PASSED
"Statement - Password = ""Admin@""",Chrome 67.0.3396.99,,2018-06-26 12:55:34,2018-06-26 12:55:34,0.001s,PASSED
"Statement - Invalid_Login(Username, Password)",Chrome 67.0.3396.99,,2018-06-26 12:55:34,2018-06-26 12:55:34,0.003s,PASSED
setText,Chrome 67.0.3396.99,,2018-06-26 12:55:34,2018-06-26 12:55:34,0.369s,PASSED
setText,Chrome 67.0.3396.99,,2018-06-26 12:55:34,2018-06-26 12:55:34,0.159s,PASSED
click,Chrome 67.0.3396.99,,2018-06-26 12:55:34,2018-06-26 12:55:34,0.330s,PASSED
"Statement - assert com.kms.katalon.core.webui.keyword.WebUiBuiltInKeywords.verifyElementPresent(com.kms.katalon.core.testobject.ObjectRepository.findTestObject(SDS_Login/SDS_Login_Page/invalid_login_attempt), 3) : ""Error message not displayed""",Chrome 67.0.3396.99,,2018-06-26 12:55:34,2018-06-26 12:55:34,0.079s,PASSED
"Statement - assert com.kms.katalon.core.webui.keyword.WebUiBuiltInKeywords.verifyElementNotPresent(com.kms.katalon.core.testobject.ObjectRepository.findTestObject(SDS_Login/SDS_Logged_In/loggout_form), 3) : ""User successfully logged in with invalid password""",Chrome 67.0.3396.99,,2018-06-26 12:55:34,2018-06-26 12:55:35,0.163s,PASSED
"Statement - Username = ""Admin@synect""",Chrome 67.0.3396.99,,2018-06-26 12:55:35,2018-06-26 12:55:35,0.001s,PASSED
"Statement - Password = ""Admin@1234""",Chrome 67.0.3396.99,,2018-06-26 12:55:35,2018-06-26 12:55:35,0.002s,PASSED
"Statement - Invalid_Login(Username, Password)",Chrome 67.0.3396.99,,2018-06-26 12:55:35,2018-06-26 12:55:35,0.001s,PASSED
setText,Chrome 67.0.3396.99,,2018-06-26 12:55:35,2018-06-26 12:55:35,0.230s,PASSED
setText,Chrome 67.0.3396.99,,2018-06-26 12:55:35,2018-06-26 12:55:35,0.196s,PASSED
click,Chrome 67.0.3396.99,,2018-06-26 12:55:35,2018-06-26 12:55:35,0.214s,PASSED
"Statement - assert com.kms.katalon.core.webui.keyword.WebUiBuiltInKeywords.verifyElementPresent(com.kms.katalon.core.testobject.ObjectRepository.findTestObject(SDS_Login/SDS_Login_Page/invalid_login_attempt), 3) : ""Error message not displayed""",Chrome 67.0.3396.99,,2018-06-26 12:55:35,2018-06-26 12:55:39,4.075s,FAILED
,,,,,,
Test Cases/Login/SDS_Login_Valid,Chrome 67.0.3396.99,,2018-06-26 12:55:39,2018-06-26 12:55:41,2.005s,PASSED
"Statement - Username = ""Admin@synectmedia.com""",Chrome 67.0.3396.99,,2018-06-26 12:55:40,2018-06-26 12:55:40,0.001s,PASSED
"Statement - Password = ""Admin@1234""",Chrome 67.0.3396.99,,2018-06-26 12:55:40,2018-06-26 12:55:40,0.001s,PASSED
setText,Chrome 67.0.3396.99,,2018-06-26 12:55:40,2018-06-26 12:55:40,0.291s,PASSED
setText,Chrome 67.0.3396.99,,2018-06-26 12:55:40,2018-06-26 12:55:40,0.241s,PASSED
click,Chrome 67.0.3396.99,,2018-06-26 12:55:40,2018-06-26 12:55:41,1.166s,PASSED
"Statement - assert com.kms.katalon.core.webui.keyword.WebUiBuiltInKeywords.verifyElementPresent(com.kms.katalon.core.testobject.ObjectRepository.findTestObject(SDS_Login/SDS_Logged_In/loggout_form), 3) : ""Fail to login with valid credentials""",Chrome 67.0.3396.99,,2018-06-26 12:55:41,2018-06-26 12:55:41,0.063s,PASSED
